{
   "data":
      [
         {
            "slug":"business-reporting-advisory-group-javascript-developer-wroclaw",
            "title":"JavaScript Developer",
            "requiredSkills":[
               "Cypress",
               "Node.js",
               "Agile",
               "English",
               "Angular",
               "JavaScript",
               "CSS3",
               "HTML"
            ],
            "niceToHaveSkills":"None",
            "workplaceType":"remote",
            "workingTime":"Undetermined",
            "experienceLevel":"mid",
            "employmentTypes":[
               {
                  "to":16000,
                  "from":12000,
                  "type":"permanent",
                  "to_chf":3363.232,
                  "to_eur":3475.776,
                  "to_gbp":3023.216,
                  "to_pln":"16000",
                  "to_usd":3672.4,
                  "currency":"pln",
                  "from_chf":2522.424,
                  "from_eur":2606.832,
                  "from_gbp":2267.412,
                  "from_pln":"12000",
                  "from_usd":2754.3
               },
               {
                  "to":20000,
                  "from":15000,
                  "type":"b2b",
                  "to_chf":4204.04,
                  "to_eur":4344.72,
                  "to_gbp":3779.02,
                  "to_pln":"20000",
                  "to_usd":4590.5,
                  "currency":"pln",
                  "from_chf":3153.03,
                  "from_eur":3258.54,
                  "from_gbp":2834.265,
                  "from_pln":"15000",
                  "from_usd":3442.875
               }
            ],
            "categoryId":1,
            "multilocation":[
               {
                  "city":"Wrocław",
                  "slug":"business-reporting-advisory-group-javascript-developer-wroclaw",
                  "street":"Centrum",
                  "latitude":51.1078852,
                  "longitude":17.0385376
               },
               {
                  "city":"Warszawa",
                  "slug":"business-reporting-advisory-group-javascript-developer-warszawa",
                  "street":"Centrum",
                  "latitude":52.2302091,
                  "longitude":21.0113922
               },
               {
                  "city":"Kraków",
                  "slug":"business-reporting-advisory-group-javascript-developer-krakow",
                  "street":"Centrum",
                  "latitude":50.0646501,
                  "longitude":19.9449799
               },
               {
                  "city":"Toruń",
                  "slug":"business-reporting-advisory-group-javascript-developer-torun",
                  "street":"Centrum",
                  "latitude":53.0137902,
                  "longitude":18.5984437
               },
               {
                  "city":"Poznań",
                  "slug":"business-reporting-advisory-group-javascript-developer-poznan",
                  "street":"Centrum",
                  "latitude":52.4093634,
                  "longitude":16.9317991
               },
               {
                  "city":"Gdańsk",
                  "slug":"business-reporting-advisory-group-javascript-developer-gdansk",
                  "street":"Centrum",
                  "latitude":54.3520252,
                  "longitude":18.6466384
               },
               {
                  "city":"Katowice",
                  "slug":"business-reporting-advisory-group-javascript-developer-katowice",
                  "street":"Centrum",
                  "latitude":50.2648919,
                  "longitude":19.0237815
               },
               {
                  "city":"Bydgoszcz",
                  "slug":"business-reporting-advisory-group-javascript-developer-bydgoszcz",
                  "street":"Centrum",
                  "latitude":53.1234804,
                  "longitude":18.0084378
               },
               {
                  "city":"Olsztyn",
                  "slug":"business-reporting-advisory-group-javascript-developer-olsztyn",
                  "street":"Centrum",
                  "latitude":53.778422,
                  "longitude":20.4801193
               },
               {
                  "city":"Łódź",
                  "slug":"business-reporting-advisory-group-javascript-developer-lodz",
                  "street":"Centrum",
                  "latitude":51.7592485,
                  "longitude":19.4559833
               }
            ],
            "city":"Wrocław",
            "street":"Centrum",
            "latitude":"51.1078852",
            "longitude":"17.0385376",
            "remoteInterview":false,
            "companyName":"BR-AG P.S.A",
            "companyLogoThumbUrl":"https://public.justjoin.it/offers/company_logos/thumb_x2/4b2046019c958b24aa58c3ef20895f5f838cdc8b.png?1695115480",
            "publishedAt":"2023-09-27T10:00:12.556Z",
            "openToHireUkrainians":false
         },
         {
            "slug":"netguru-senior-mendix-low-code-developer-warszawa",
            "title":"Senior Mendix Low-code Developer",
            "requiredSkills":[
               "Java",
               "Mendix",
               "CSS"
            ],
            "niceToHaveSkills":"None",
            "workplaceType":"partly_remote",
            "workingTime":"Undetermined",
            "experienceLevel":"senior",
            "employmentTypes":[
               {
                  "to":8060,
                  "from":5700,
                  "type":"b2b",
                  "to_chf":7799.03332,
                  "to_eur":"8060",
                  "to_gbp":7010.55576,
                  "to_pln":37102.54964,
                  "to_usd":8515.9542,
                  "currency":"eur",
                  "from_chf":5515.4454,
                  "from_eur":"5700",
                  "from_gbp":4957.8372,
                  "from_pln":26238.7758,
                  "from_usd":6022.449
               }
            ],
            "categoryId":24,
            "multilocation":[
               {
                  "city":"Warszawa",
                  "slug":"netguru-senior-mendix-low-code-developer-warszawa",
                  "street":"-",
                  "latitude":52.2296756,
                  "longitude":21.0122287
               },
               {
                  "city":"Wrocław",
                  "slug":"netguru-senior-mendix-low-code-developer-wroclaw",
                  "street":"-",
                  "latitude":51.1078852,
                  "longitude":17.0385376
               },
               {
                  "city":"Kraków",
                  "slug":"netguru-senior-mendix-low-code-developer-krakow",
                  "street":"-",
                  "latitude":50.0646501,
                  "longitude":19.9449799
               },
               {
                  "city":"Katowice",
                  "slug":"netguru-senior-mendix-low-code-developer-katowice",
                  "street":"-",
                  "latitude":50.2648919,
                  "longitude":19.0237815
               },
               {
                  "city":"Gdańsk",
                  "slug":"netguru-senior-mendix-low-code-developer-gdansk",
                  "street":"-",
                  "latitude":54.3520252,
                  "longitude":18.6466384
               },
               {
                  "city":"Białystok",
                  "slug":"netguru-senior-mendix-low-code-developer-bialystok",
                  "street":"-",
                  "latitude":53.1324886,
                  "longitude":23.1688403
               },
               {
                  "city":"Bydgoszcz",
                  "slug":"netguru-senior-mendix-low-code-developer-bydgoszcz",
                  "street":"-",
                  "latitude":53.1234804,
                  "longitude":18.0084378
               },
               {
                  "city":"Bielsko-Biała",
                  "slug":"netguru-senior-mendix-low-code-developer-bielsko-biala",
                  "street":"-",
                  "latitude":49.8223768,
                  "longitude":19.0583845
               },
               {
                  "city":"Częstochowa",
                  "slug":"netguru-senior-mendix-low-code-developer-czestochowa",
                  "street":"-",
                  "latitude":50.8118195,
                  "longitude":19.1203094
               },
               {
                  "city":"Kielce",
                  "slug":"netguru-senior-mendix-low-code-developer-kielce",
                  "street":"-",
                  "latitude":50.8660773,
                  "longitude":20.6285677
               },
               {
                  "city":"Łódź",
                  "slug":"netguru-senior-mendix-low-code-developer-lodz",
                  "street":"-",
                  "latitude":51.7592485,
                  "longitude":19.4559833
               },
               {
                  "city":"Lublin",
                  "slug":"netguru-senior-mendix-low-code-developer-lublin",
                  "street":"-",
                  "latitude":51.2464536,
                  "longitude":22.5684463
               },
               {
                  "city":"Olsztyn",
                  "slug":"netguru-senior-mendix-low-code-developer-olsztyn",
                  "street":"-",
                  "latitude":53.778422,
                  "longitude":20.4801193
               },
               {
                  "city":"Opole",
                  "slug":"netguru-senior-mendix-low-code-developer-opole",
                  "street":"-",
                  "latitude":50.6683223,
                  "longitude":17.9230651
               },
               {
                  "city":"Rzeszów",
                  "slug":"netguru-senior-mendix-low-code-developer-rzeszow",
                  "street":"-",
                  "latitude":50.0411867,
                  "longitude":21.9991196
               },
               {
                  "city":"Szczecin",
                  "slug":"netguru-senior-mendix-low-code-developer-szczecin",
                  "street":"-",
                  "latitude":53.4285438,
                  "longitude":14.5528116
               },
               {
                  "city":"Zielona Góra",
                  "slug":"netguru-senior-mendix-low-code-developer-zielona-gora",
                  "street":"-",
                  "latitude":51.9356214,
                  "longitude":15.5061862
               },
               {
                  "city":"Toruń",
                  "slug":"netguru-senior-mendix-low-code-developer-torun",
                  "street":"-",
                  "latitude":53.0137902,
                  "longitude":18.5984437
               },
               {
                  "city":"Poznań",
                  "slug":"netguru-senior-mendix-low-code-developer",
                  "street":"Małe Garbary",
                  "latitude":52.4112952,
                  "longitude":16.9354478
               }
            ],
            "city":"Warszawa",
            "street":"-",
            "latitude":"52.2296756",
            "longitude":"21.0122287",
            "remoteInterview":false,
            "companyName":"Netguru",
            "companyLogoThumbUrl":"https://public.justjoin.it/offers/company_logos/thumb_x2/bbf89a7ee5907d9fb3273069a659094540ff9c2d.jpg?1695375766",
            "publishedAt":"2023-09-27T10:00:12.556Z",
            "openToHireUkrainians":false
         }
      ],
   "meta":
      {
         "page": 1,
         "totalItems": 4,
         "totalPages": 2,
         "prevPage": null,
         "nextPage": 2
      }
}