{
   "data":
      [
         {
            "slug":"roxart-agency-dowozacy-taski-prestashop-developer-rzeszow",
            "title":"Mid/Sr Prestashop Developer",
            "requiredSkills":[
               "MySQL",
               "PHP",
               "PrestaShop",
               "HTML",
               "WordPress",
               "CSS",
               "JavaScript"
            ],
            "niceToHaveSkills":null,
            "workplaceType":"remote",
            "workingTime":"Undetermined",
            "experienceLevel":"senior",
            "employmentTypes":[
               {
                  "to":null,
                  "from":null,
                  "type":"b2b",
                  "to_chf":null,
                  "to_eur":null,
                  "to_gbp":null,
                  "to_pln":null,
                  "to_usd":null,
                  "currency":"pln",
                  "from_chf":null,
                  "from_eur":null,
                  "from_gbp":null,
                  "from_pln":null,
                  "from_usd":null
               },
               {
                  "to":null,
                  "from":null,
                  "type":"permanent",
                  "to_chf":null,
                  "to_eur":null,
                  "to_gbp":null,
                  "to_pln":null,
                  "to_usd":null,
                  "currency":"pln",
                  "from_chf":null,
                  "from_eur":null,
                  "from_gbp":null,
                  "from_pln":null,
                  "from_usd":null
               }
            ],
            "categoryId":3,
            "multilocation":[
               {
                  "city":"Rzeszów",
                  "slug":"roxart-agency-dowozacy-taski-prestashop-developer-rzeszow",
                  "street":"Kolejowa 1",
                  "latitude":50.040542,
                  "longitude":22.0081268
               },
               {
                  "city":"Warszawa",
                  "slug":"roxart-agency-dowozacy-taski-prestashop-developer-warszawa",
                  "street":"-",
                  "latitude":52.2296756,
                  "longitude":21.0122287
               },
               {
                  "city":"Kraków",
                  "slug":"roxart-agency-dowozacy-taski-prestashop-developer-krakow",
                  "street":"-",
                  "latitude":50.0646501,
                  "longitude":19.9449799
               },
               {
                  "city":"Wrocław",
                  "slug":"roxart-agency-dowozacy-taski-prestashop-developer-wroclaw",
                  "street":"-",
                  "latitude":51.1078852,
                  "longitude":17.0385376
               },
               {
                  "city":"Gdańsk",
                  "slug":"roxart-agency-dowozacy-taski-prestashop-developer-gdansk",
                  "street":"-",
                  "latitude":54.3520252,
                  "longitude":18.6466384
               },
               {
                  "city":"Katowice",
                  "slug":"roxart-agency-dowozacy-taski-prestashop-developer-katowice",
                  "street":"-",
                  "latitude":50.2648919,
                  "longitude":19.0237815
               },
               {
                  "city":"Bydgoszcz",
                  "slug":"roxart-agency-dowozacy-taski-prestashop-developer-bydgoszcz",
                  "street":"-",
                  "latitude":53.1234804,
                  "longitude":18.0084378
               },
               {
                  "city":"Szczecin",
                  "slug":"roxart-agency-dowozacy-taski-prestashop-developer-szczecin",
                  "street":"-",
                  "latitude":53.4285438,
                  "longitude":14.5528116
               },
               {
                  "city":"Lublin",
                  "slug":"roxart-agency-dowozacy-taski-prestashop-developer-lublin",
                  "street":"-",
                  "latitude":51.2464536,
                  "longitude":22.5684463
               },
               {
                  "city":"Łódź",
                  "slug":"roxart-agency-dowozacy-taski-prestashop-developer-lodz",
                  "street":"-",
                  "latitude":51.7592485,
                  "longitude":19.4559833
               }
            ],
            "city":"Rzeszów",
            "street":"Kolejowa 1",
            "latitude":"50.0405420",
            "longitude":"22.0081268",
            "remoteInterview":true,
            "companyName":"ROXART Agency",
            "companyLogoThumbUrl":"https://public.justjoin.it/offers/company_logos/thumb_x2/8b0ce8b4792d613fe7bb818588ed75726e4dca7c.png?1694763090",
            "publishedAt":"2023-09-27T08:00:10.969Z",
            "openToHireUkrainians":false
         },
         {
            "slug":"roxart-agency-dowozacy-taski-prestashop-developer-rzeszow",
            "title":"Mid/Sr Prestashop Developer",
            "requiredSkills":[
               "MySQL",
               "PHP",
               "PrestaShop",
               "HTML",
               "WordPress",
               "CSS",
               "JavaScript"
            ],
            "niceToHaveSkills":null,
            "workplaceType":"remote",
            "workingTime":"Undetermined",
            "experienceLevel":"senior",
            "employmentTypes":[
               {
                  "to":null,
                  "from":null,
                  "type":"b2b",
                  "to_chf":null,
                  "to_eur":null,
                  "to_gbp":null,
                  "to_pln":null,
                  "to_usd":null,
                  "currency":"pln",
                  "from_chf":null,
                  "from_eur":null,
                  "from_gbp":null,
                  "from_pln":null,
                  "from_usd":null
               },
               {
                  "to":null,
                  "from":null,
                  "type":"permanent",
                  "to_chf":null,
                  "to_eur":null,
                  "to_gbp":null,
                  "to_pln":null,
                  "to_usd":null,
                  "currency":"pln",
                  "from_chf":null,
                  "from_eur":null,
                  "from_gbp":null,
                  "from_pln":null,
                  "from_usd":null
               }
            ],
            "categoryId":3,
            "multilocation":[
               {
                  "city":"Rzeszów",
                  "slug":"roxart-agency-dowozacy-taski-prestashop-developer-rzeszow",
                  "street":"Kolejowa 1",
                  "latitude":50.040542,
                  "longitude":22.0081268
               },
               {
                  "city":"Warszawa",
                  "slug":"roxart-agency-dowozacy-taski-prestashop-developer-warszawa",
                  "street":"-",
                  "latitude":52.2296756,
                  "longitude":21.0122287
               },
               {
                  "city":"Kraków",
                  "slug":"roxart-agency-dowozacy-taski-prestashop-developer-krakow",
                  "street":"-",
                  "latitude":50.0646501,
                  "longitude":19.9449799
               },
               {
                  "city":"Wrocław",
                  "slug":"roxart-agency-dowozacy-taski-prestashop-developer-wroclaw",
                  "street":"-",
                  "latitude":51.1078852,
                  "longitude":17.0385376
               },
               {
                  "city":"Gdańsk",
                  "slug":"roxart-agency-dowozacy-taski-prestashop-developer-gdansk",
                  "street":"-",
                  "latitude":54.3520252,
                  "longitude":18.6466384
               },
               {
                  "city":"Katowice",
                  "slug":"roxart-agency-dowozacy-taski-prestashop-developer-katowice",
                  "street":"-",
                  "latitude":50.2648919,
                  "longitude":19.0237815
               },
               {
                  "city":"Bydgoszcz",
                  "slug":"roxart-agency-dowozacy-taski-prestashop-developer-bydgoszcz",
                  "street":"-",
                  "latitude":53.1234804,
                  "longitude":18.0084378
               },
               {
                  "city":"Szczecin",
                  "slug":"roxart-agency-dowozacy-taski-prestashop-developer-szczecin",
                  "street":"-",
                  "latitude":53.4285438,
                  "longitude":14.5528116
               },
               {
                  "city":"Lublin",
                  "slug":"roxart-agency-dowozacy-taski-prestashop-developer-lublin",
                  "street":"-",
                  "latitude":51.2464536,
                  "longitude":22.5684463
               },
               {
                  "city":"Łódź",
                  "slug":"roxart-agency-dowozacy-taski-prestashop-developer-lodz",
                  "street":"-",
                  "latitude":51.7592485,
                  "longitude":19.4559833
               }
            ],
            "city":"Rzeszów",
            "street":"Kolejowa 1",
            "latitude":"50.0405420",
            "longitude":"22.0081268",
            "remoteInterview":true,
            "companyName":"ROXART Agency",
            "companyLogoThumbUrl":"https://public.justjoin.it/offers/company_logos/thumb_x2/8b0ce8b4792d613fe7bb818588ed75726e4dca7c.png?1694763090",
            "publishedAt":"2023-09-27T08:00:10.969Z",
            "openToHireUkrainians":false
         }
      ],
   "meta":
      {
         "page": 2,
         "totalItems": 4,
         "totalPages": 2,
         "prevPage": 1,
         "nextPage": null
      }
}